{
    "$schema": "https://schemas.wp.org/trunk/block.json",
    "apiVersion": 2,
    "name": "lg-blocks/team-members",
    "version": "1.0.0",
    "title": "Team Members",
    "category": "lg-category",
    "icon": "grid-view",
    "description": "Block to display team members.",
    "textdomain": "lg-blocks",
    "supports": {
        "html": false,
        "align": ["wide", "full"]
    },
    "keywords": [
        "Team",
        "Member",
        "Person"
    ],
    "attributes": {
        "columns": {
            "type": "number",
            "default": 2
        }
    },
    "editorScript": "file:./index.js",
    "editorStyle": "file:./index.css",
    "style": "file:./style-index.css"
}