{
    "$schema": "https://schemas.wp.org/trunk/block.json",
    "apiVersion": 2,
    "name": "lg-blocks/pricing-table-item",
    "version": "1.0.0",
    "title": "Pricing Table Item",
    "category": "lg-category",
    "description": "Pricing table item internal block.",
    "textdomain": "lg-blocks",
    "parent": ["lg-blocks/pricing-table"],
    "supports": {},
    "keywords": [
        "Pricing Table",
        "Pricing Plans",
        "Pricing"
    ],
    "attributes": {
        "title": {
            "type": "string",
            "source": "html",
            "selector": ".pricing-table__title"
          },
          "price": {
            "type": "string",
            "source": "html",
            "selector": ".pricing-table__price"
          },
          "specialPrice": {
            "type": "string",
            "source": "html",
            "selector": ".pricing-table__specialPrice"
          },
          "features": {
            "type": "string",
            "source": "html",
            "selector": ".pricing-table__features"
          },
          "showPricingHeader": {
            "type": "boolean",
            "default": true
          },
          "backgroundColor": {
            "type": "string"
          },
          "textColor": {
            "type": "string"
          },
          "customBackgroundColor": {
            "type": "string"
          },
          "customTextColor": {
            "type": "string"
          }
    },
    "editorScript": "file:./index.js",
    "editorStyle": "file:./index.css",
    "style": "file:./style-index.css"
}